{
    "_metadata": {
        "page": 5,
        "per_page": 20,
        "page_count": 20,
        "total_count": 521
    },
    "records": [
        {
            "id": "3d8f1342-15f1-44b1-a48f-4581d654b94a",
            "title": "Pauvres créatures",
            "releaseDate": "2024-01-17",
            "duration": 90,
            "resume": "Après s'être noyée pour échapper à son mari violent, le cerveau de Bella Baxter est remplacé par celui de son enfant à naître.",
            "trailerLink": "https://www.youtube.com/watch?v=ZGwOzkF6HjI&t=1s",
            "posterLink": "/5fT98da9ccWN2xr8VOJrSBp3Cdw.jpg",
            "photoLink": "/bQS43HSLZzMjZkcHJz4fGc7fNdz.jpg",
            "directors": ["Yorgos Lanthimos"],
            "cast": ["Emma Stone", "Mark Ruffalo", "Willem Dafoe"],
            "genres": ["Science-Fiction", "Romance", "Comédie"]
        },
        {
            "id": "f7e41334-179d-451a-a1d4-e1b9a60ee785",
            "title": "Argylle",
            "releaseDate": "2024-01-31",
            "duration": 90,
            "resume": "Elly Conway est une romancière spécialisée dans l'écriture de romans d'espionnage mettant en scène un agent secret fictif nommé Argylle. Cette femme très introvertie quitte rarement son domicile. Elle se retrouve liée aux activités d'un sinistre syndicat criminel clandestin et est secourue par un espion nommé Aiden. Elly et son chat bien-aimé Alfie sont alors plongés dans un monde secret où la fiction de ses romans rejoint la réalité y compris même qu'elle découvre que l'agent Argylle existe pour de vrai.",
            "trailerLink": "",
            "posterLink": "/uVAk2YliqInQfH4B4vzZ75rwcNB.jpg",
            "photoLink": "",
            "directors": [""],
            "cast": [""],
            "genres": [""]
        },
        {
            "id": "cff01b1b-a943-4bcf-a396-afd80417150a",
            "title": "Dune",
            "releaseDate": "2024-01-31",
            "duration": 166,
            "resume": "Paul Atréides se rallie à Chani et aux Fremen tout en préparant sa revanche contre ceux qui ont détruit sa famille. Alors qu'il doit faire un choix entre l'amour de sa vie et le destin de la galaxie, il devra néanmoins tout faire pour empêcher un terrible futur que lui seul peut prédire.",
            "trailerLink": "",
            "posterLink": "/qpyaW4xUPeIiYA5ckg5zAZFHvsb.jpg",
            "photoLink": "",
            "directors": ["Denis Villeneuve"],
            "cast": ["Timothée Chalamet", "Zendaya", "Rebecca Ferguson"],
            "genres": ["Drame", "Science-Fiction"]
        },
        {
            "id": "dd4cdbd2-44b7-4fb4-84b4-4f016d379ddb",
            "title": "The Grand Budapest Hotel",
            "releaseDate": "2014-02-26",
            "duration": 100,
            "resume": "Pendant l’entre‐deux guerres, le légendaire concierge d’un grand hôtel et son jeune protégé se retrouvent impliqués dans une histoire mêlant le vol d’un tableau de la Renaissance, la bataille pour une énorme fortune familiale, et le lent puis soudain bouleversement qui transforme l’Europe en cette première moitié de XXème siècle.",
            "trailerLink": "",
            "posterLink": "/atLMzzA7pOB0BdfM89V7BbdtLN6.jpg",
            "photoLink": "/xHDynIimfsgj0ZOs0j5ma8v1vmM.jpg",
            "directors": ["Wes Anderson"],
            "cast": ["Ralph Fiennes", "Zendaya", "Rebecca Ferguson"],
            "genres": ["Comédie", "Drame"]
        }
    ]
}
